<?xml version="1.0" encoding="UTF-8"?>
<testng-results skipped="0" failed="0" total="2" passed="2">
  <reporter-output>
    <line>
      <![CDATA[STEP1]]>
    </line>
    <line>
      <![CDATA[STEP2]]>
    </line>
    <line>
      <![CDATA[STEP3]]>
    </line>
    <line>
      <![CDATA[STEP4]]>
    </line>
    <line>
      <![CDATA[STEP5]]>
    </line>
    <line>
      <![CDATA[STEP6]]>
    </line>
    <line>
      <![CDATA[STEP7]]>
    </line>
    <line>
      <![CDATA[STEP8]]>
    </line>
    <line>
      <![CDATA[STEP9]]>
    </line>
    <line>
      <![CDATA[STEP10]]>
    </line>
    <line>
      <![CDATA[STEP11]]>
    </line>
    <line>
      <![CDATA[STEP12]]>
    </line>
    <line>
      <![CDATA[STEP13]]>
    </line>
    <line>
      <![CDATA[STEP14]]>
    </line>
    <line>
      <![CDATA[STEP15]]>
    </line>
    <line>
      <![CDATA[STEP16]]>
    </line>
    <line>
      <![CDATA[STEP17]]>
    </line>
    <line>
      <![CDATA[STEP18]]>
    </line>
    <line>
      <![CDATA[STEP19]]>
    </line>
    <line>
      <![CDATA[STEP20]]>
    </line>
    <line>
      <![CDATA[STEP21]]>
    </line>
    <line>
      <![CDATA[STEP22]]>
    </line>
    <line>
      <![CDATA[STEP23]]>
    </line>
    <line>
      <![CDATA[STEP24]]>
    </line>
    <line>
      <![CDATA[STEP25]]>
    </line>
    <line>
      <![CDATA[STEP26]]>
    </line>
    <line>
      <![CDATA[STEP27]]>
    </line>
    <line>
      <![CDATA[STEP28]]>
    </line>
    <line>
      <![CDATA[STEP29]]>
    </line>
    <line>
      <![CDATA[STEP30]]>
    </line>
    <line>
      <![CDATA[STEP31]]>
    </line>
    <line>
      <![CDATA[STEP32]]>
    </line>
    <line>
      <![CDATA[STEP33]]>
    </line>
    <line>
      <![CDATA[STEP34]]>
    </line>
  </reporter-output>
  <suite name="Barneys_Dev" duration-ms="321992" started-at="2017-10-01T16:19:39Z" finished-at="2017-10-01T16:25:01Z">
    <groups>
      <group name="Demo">
        <method signature="DemoTestCases.FailInStockProductCheck(java.lang.String, java.lang.String, java.lang.String, java.lang.String, java.lang.String, java.lang.String, java.lang.String, java.lang.String, java.lang.String, java.lang.String, java.lang.String, java.lang.String, java.lang.String, java.lang.String, java.lang.String, java.lang.String, java.lang.String, java.lang.String, java.lang.String, java.lang.String, java.lang.String)[pri:0, instance:testCases.DemoTestCases@670d4d38]" name="FailInStockProductCheck" class="testCases.DemoTestCases"/>
        <method signature="DemoTestCases.PassInStockProductCheck(java.lang.String, java.lang.String, java.lang.String, java.lang.String, java.lang.String, java.lang.String, java.lang.String, java.lang.String, java.lang.String, java.lang.String, java.lang.String, java.lang.String, java.lang.String, java.lang.String, java.lang.String, java.lang.String, java.lang.String, java.lang.String, java.lang.String, java.lang.String, java.lang.String)[pri:0, instance:testCases.DemoTestCases@670d4d38]" name="PassInStockProductCheck" class="testCases.DemoTestCases"/>
      </group> <!-- Demo -->
    </groups>
    <test name="Login" duration-ms="321992" started-at="2017-10-01T16:19:39Z" finished-at="2017-10-01T16:25:01Z">
      <class name="testCases.DemoTestCases">
        <test-method status="PASS" signature="Start(java.lang.String, java.lang.String)[pri:0, instance:testCases.DemoTestCases@670d4d38]" name="Start" is-config="true" duration-ms="52836" started-at="2017-10-01T21:49:39Z" finished-at="2017-10-01T21:50:32Z">
          <params>
            <param index="0">
              <value>
                <![CDATA[CH]]>
              </value>
            </param>
            <param index="1">
              <value>
                <![CDATA[http://staging.barneys.com/]]>
              </value>
            </param>
          </params>
          <reporter-output>
          </reporter-output>
        </test-method> <!-- Start -->
        <test-method status="PASS" signature="PassInStockProductCheck(java.lang.String, java.lang.String, java.lang.String, java.lang.String, java.lang.String, java.lang.String, java.lang.String, java.lang.String, java.lang.String, java.lang.String, java.lang.String, java.lang.String, java.lang.String, java.lang.String, java.lang.String, java.lang.String, java.lang.String, java.lang.String, java.lang.String, java.lang.String, java.lang.String)[pri:0, instance:testCases.DemoTestCases@670d4d38]" name="PassInStockProductCheck" duration-ms="125562" started-at="2017-10-01T21:50:32Z" data-provider="ShippingFormData" finished-at="2017-10-01T21:52:38Z">
          <params>
            <param index="0">
              <value>
                <![CDATA[gvarma0904@yopmail.com]]>
              </value>
            </param>
            <param index="1">
              <value>
                <![CDATA[12345678]]>
              </value>
            </param>
            <param index="2">
              <value>
                <![CDATA[United States]]>
              </value>
            </param>
            <param index="3">
              <value>
                <![CDATA[Yogeeta]]>
              </value>
            </param>
            <param index="4">
              <value>
                <![CDATA[Bhosale]]>
              </value>
            </param>
            <param index="5">
              <value>
                <![CDATA[Sydney Bay]]>
              </value>
            </param>
            <param index="6">
              <value>
                <![CDATA[Sydney Square]]>
              </value>
            </param>
            <param index="7">
              <value>
                <![CDATA[Sydney]]>
              </value>
            </param>
            <param index="8">
              <value>
                <![CDATA[New York]]>
              </value>
            </param>
            <param index="9">
              <value>
                <![CDATA[10065]]>
              </value>
            </param>
            <param index="10">
              <value>
                <![CDATA[3333333333]]>
              </value>
            </param>
            <param index="11">
              <value>
                <![CDATA[MasterCard]]>
              </value>
            </param>
            <param index="12">
              <value>
                <![CDATA[5424180279791765]]>
              </value>
            </param>
            <param index="13">
              <value>
                <![CDATA[123]]>
              </value>
            </param>
            <param index="14">
              <value>
                <![CDATA[100 Industrial]]>
              </value>
            </param>
            <param index="15">
              <value>
                <![CDATA[Rittman]]>
              </value>
            </param>
            <param index="16">
              <value>
                <![CDATA[Ohio]]>
              </value>
            </param>
            <param index="17">
              <value>
                <![CDATA[44270]]>
              </value>
            </param>
            <param index="18">
              <value>
                <![CDATA[yes]]>
              </value>
            </param>
            <param index="19">
              <value>
                <![CDATA[/saint-laurent-baby-cat-print-scarf-503763131.html#start=1]]>
              </value>
            </param>
            <param index="20">
              <value>
                <![CDATA[/ettika-fiesta-bangle-502719447.html]]>
              </value>
            </param>
          </params>
          <reporter-output>
            <line>
              <![CDATA[STEP1]]>
            </line>
            <line>
              <![CDATA[STEP2]]>
            </line>
            <line>
              <![CDATA[STEP3]]>
            </line>
            <line>
              <![CDATA[STEP4]]>
            </line>
            <line>
              <![CDATA[STEP5]]>
            </line>
            <line>
              <![CDATA[STEP6]]>
            </line>
            <line>
              <![CDATA[STEP7]]>
            </line>
            <line>
              <![CDATA[STEP8]]>
            </line>
            <line>
              <![CDATA[STEP9]]>
            </line>
            <line>
              <![CDATA[STEP10]]>
            </line>
            <line>
              <![CDATA[STEP11]]>
            </line>
            <line>
              <![CDATA[STEP12]]>
            </line>
            <line>
              <![CDATA[STEP13]]>
            </line>
            <line>
              <![CDATA[STEP14]]>
            </line>
            <line>
              <![CDATA[STEP15]]>
            </line>
            <line>
              <![CDATA[STEP16]]>
            </line>
            <line>
              <![CDATA[STEP17]]>
            </line>
          </reporter-output>
        </test-method> <!-- PassInStockProductCheck -->
        <test-method status="PASS" signature="Stop()[pri:0, instance:testCases.DemoTestCases@670d4d38]" name="Stop" is-config="true" duration-ms="3761" started-at="2017-10-01T21:52:38Z" finished-at="2017-10-01T21:52:41Z">
          <reporter-output>
          </reporter-output>
        </test-method> <!-- Stop -->
        <test-method status="PASS" signature="Start(java.lang.String, java.lang.String)[pri:0, instance:testCases.DemoTestCases@670d4d38]" name="Start" is-config="true" duration-ms="32123" started-at="2017-10-01T21:52:42Z" finished-at="2017-10-01T21:53:14Z">
          <params>
            <param index="0">
              <value>
                <![CDATA[CH]]>
              </value>
            </param>
            <param index="1">
              <value>
                <![CDATA[http://staging.barneys.com/]]>
              </value>
            </param>
          </params>
          <reporter-output>
          </reporter-output>
        </test-method> <!-- Start -->
        <test-method status="PASS" signature="FailInStockProductCheck(java.lang.String, java.lang.String, java.lang.String, java.lang.String, java.lang.String, java.lang.String, java.lang.String, java.lang.String, java.lang.String, java.lang.String, java.lang.String, java.lang.String, java.lang.String, java.lang.String, java.lang.String, java.lang.String, java.lang.String, java.lang.String, java.lang.String, java.lang.String, java.lang.String)[pri:0, instance:testCases.DemoTestCases@670d4d38]" name="FailInStockProductCheck" duration-ms="103304" started-at="2017-10-01T21:53:14Z" data-provider="ShippingFormData" finished-at="2017-10-01T21:54:57Z">
          <params>
            <param index="0">
              <value>
                <![CDATA[gvarma0904@yopmail.com]]>
              </value>
            </param>
            <param index="1">
              <value>
                <![CDATA[12345678]]>
              </value>
            </param>
            <param index="2">
              <value>
                <![CDATA[United States]]>
              </value>
            </param>
            <param index="3">
              <value>
                <![CDATA[Yogeeta]]>
              </value>
            </param>
            <param index="4">
              <value>
                <![CDATA[Bhosale]]>
              </value>
            </param>
            <param index="5">
              <value>
                <![CDATA[Sydney Bay]]>
              </value>
            </param>
            <param index="6">
              <value>
                <![CDATA[Sydney Square]]>
              </value>
            </param>
            <param index="7">
              <value>
                <![CDATA[Sydney]]>
              </value>
            </param>
            <param index="8">
              <value>
                <![CDATA[New York]]>
              </value>
            </param>
            <param index="9">
              <value>
                <![CDATA[10065]]>
              </value>
            </param>
            <param index="10">
              <value>
                <![CDATA[3333333333]]>
              </value>
            </param>
            <param index="11">
              <value>
                <![CDATA[MasterCard]]>
              </value>
            </param>
            <param index="12">
              <value>
                <![CDATA[5424180279791765]]>
              </value>
            </param>
            <param index="13">
              <value>
                <![CDATA[123]]>
              </value>
            </param>
            <param index="14">
              <value>
                <![CDATA[100 Industrial]]>
              </value>
            </param>
            <param index="15">
              <value>
                <![CDATA[Rittman]]>
              </value>
            </param>
            <param index="16">
              <value>
                <![CDATA[Ohio]]>
              </value>
            </param>
            <param index="17">
              <value>
                <![CDATA[44270]]>
              </value>
            </param>
            <param index="18">
              <value>
                <![CDATA[yes]]>
              </value>
            </param>
            <param index="19">
              <value>
                <![CDATA[/saint-laurent-baby-cat-print-scarf-503763131.html#start=1]]>
              </value>
            </param>
            <param index="20">
              <value>
                <![CDATA[/ettika-fiesta-bangle-502719447.html]]>
              </value>
            </param>
          </params>
          <reporter-output>
            <line>
              <![CDATA[STEP18]]>
            </line>
            <line>
              <![CDATA[STEP19]]>
            </line>
            <line>
              <![CDATA[STEP20]]>
            </line>
            <line>
              <![CDATA[STEP21]]>
            </line>
            <line>
              <![CDATA[STEP22]]>
            </line>
            <line>
              <![CDATA[STEP23]]>
            </line>
            <line>
              <![CDATA[STEP24]]>
            </line>
            <line>
              <![CDATA[STEP25]]>
            </line>
            <line>
              <![CDATA[STEP26]]>
            </line>
            <line>
              <![CDATA[STEP27]]>
            </line>
            <line>
              <![CDATA[STEP28]]>
            </line>
            <line>
              <![CDATA[STEP29]]>
            </line>
            <line>
              <![CDATA[STEP30]]>
            </line>
            <line>
              <![CDATA[STEP31]]>
            </line>
            <line>
              <![CDATA[STEP32]]>
            </line>
            <line>
              <![CDATA[STEP33]]>
            </line>
            <line>
              <![CDATA[STEP34]]>
            </line>
          </reporter-output>
        </test-method> <!-- FailInStockProductCheck -->
        <test-method status="PASS" signature="Stop()[pri:0, instance:testCases.DemoTestCases@670d4d38]" name="Stop" is-config="true" duration-ms="3434" started-at="2017-10-01T21:54:57Z" finished-at="2017-10-01T21:55:01Z">
          <reporter-output>
          </reporter-output>
        </test-method> <!-- Stop -->
      </class> <!-- testCases.DemoTestCases -->
    </test> <!-- Login -->
  </suite> <!-- Barneys_Dev -->
</testng-results>
